mc20_13TeV:mc20_13TeV.600463.PhPy8EG_PDF4LHC15_HH4b_cHHH01d0.deriv.DAOD_PHYS.e8222_s3681_r13144_p6026
mc20_13TeV:mc20_13TeV.600463.PhPy8EG_PDF4LHC15_HH4b_cHHH01d0.deriv.DAOD_PHYS.e8222_s3681_r13145_p6026
mc20_13TeV:mc20_13TeV.600463.PhPy8EG_PDF4LHC15_HH4b_cHHH01d0.deriv.DAOD_PHYS.e8222_s3681_r13167_p6026
mc20_13TeV:mc20_13TeV.600464.PhPy8EG_PDF4LHC15_HH4b_cHHH10d0.deriv.DAOD_PHYS.e8222_s3681_r13144_p6026
mc20_13TeV:mc20_13TeV.600464.PhPy8EG_PDF4LHC15_HH4b_cHHH10d0.deriv.DAOD_PHYS.e8222_s3681_r13145_p6026
mc20_13TeV:mc20_13TeV.600464.PhPy8EG_PDF4LHC15_HH4b_cHHH10d0.deriv.DAOD_PHYS.e8222_s3681_r13167_p6026
