mc20_13TeV:mc20_13TeV.364198.Sherpa_221_NN30NNLO_Zmm_Mll10_40_MAXHTPTV0_70_BVeto.deriv.DAOD_PHYSLITE.e5421_s3681_r13144_r13146_p5855
mc20_13TeV:mc20_13TeV.364198.Sherpa_221_NN30NNLO_Zmm_Mll10_40_MAXHTPTV0_70_BVeto.deriv.DAOD_PHYSLITE.e5421_s3681_r13145_r13146_p5855
mc20_13TeV:mc20_13TeV.364198.Sherpa_221_NN30NNLO_Zmm_Mll10_40_MAXHTPTV0_70_BVeto.deriv.DAOD_PHYSLITE.e5421_s3681_r13167_r13146_p5855
mc20_13TeV:mc20_13TeV.364199.Sherpa_221_NN30NNLO_Zmm_Mll10_40_MAXHTPTV0_70_BFilter.deriv.DAOD_PHYSLITE.e5421_s3681_r13144_r13146_p5855
mc20_13TeV:mc20_13TeV.364199.Sherpa_221_NN30NNLO_Zmm_Mll10_40_MAXHTPTV0_70_BFilter.deriv.DAOD_PHYSLITE.e5421_s3681_r13145_r13146_p5855
mc20_13TeV:mc20_13TeV.364199.Sherpa_221_NN30NNLO_Zmm_Mll10_40_MAXHTPTV0_70_BFilter.deriv.DAOD_PHYSLITE.e5421_s3681_r13167_r13146_p5855
mc20_13TeV:mc20_13TeV.364200.Sherpa_221_NN30NNLO_Zmm_Mll10_40_MAXHTPTV70_280_BVeto.deriv.DAOD_PHYSLITE.e5421_s3681_r13144_r13146_p5855
mc20_13TeV:mc20_13TeV.364200.Sherpa_221_NN30NNLO_Zmm_Mll10_40_MAXHTPTV70_280_BVeto.deriv.DAOD_PHYSLITE.e5421_s3681_r13145_r13146_p5855
mc20_13TeV:mc20_13TeV.364200.Sherpa_221_NN30NNLO_Zmm_Mll10_40_MAXHTPTV70_280_BVeto.deriv.DAOD_PHYSLITE.e5421_s3681_r13167_r13146_p5855
mc20_13TeV:mc20_13TeV.364201.Sherpa_221_NN30NNLO_Zmm_Mll10_40_MAXHTPTV70_280_BFilter.deriv.DAOD_PHYSLITE.e5421_s3681_r13144_r13146_p5855
mc20_13TeV:mc20_13TeV.364201.Sherpa_221_NN30NNLO_Zmm_Mll10_40_MAXHTPTV70_280_BFilter.deriv.DAOD_PHYSLITE.e5421_s3681_r13145_r13146_p5855
mc20_13TeV:mc20_13TeV.364201.Sherpa_221_NN30NNLO_Zmm_Mll10_40_MAXHTPTV70_280_BFilter.deriv.DAOD_PHYSLITE.e5421_s3681_r13167_r13146_p5855
mc20_13TeV:mc20_13TeV.364202.Sherpa_221_NN30NNLO_Zmm_Mll10_40_MAXHTPTV280_E_CMS_BVeto.deriv.DAOD_PHYSLITE.e5421_s3681_r13144_r13146_p5855
mc20_13TeV:mc20_13TeV.364202.Sherpa_221_NN30NNLO_Zmm_Mll10_40_MAXHTPTV280_E_CMS_BVeto.deriv.DAOD_PHYSLITE.e5421_s3681_r13145_r13146_p5855
mc20_13TeV:mc20_13TeV.364202.Sherpa_221_NN30NNLO_Zmm_Mll10_40_MAXHTPTV280_E_CMS_BVeto.deriv.DAOD_PHYSLITE.e5421_s3681_r13167_r13146_p5855
mc20_13TeV:mc20_13TeV.364203.Sherpa_221_NN30NNLO_Zmm_Mll10_40_MAXHTPTV280_E_CMS_BFilter.deriv.DAOD_PHYSLITE.e5421_s3681_r13144_r13146_p5855
mc20_13TeV:mc20_13TeV.364203.Sherpa_221_NN30NNLO_Zmm_Mll10_40_MAXHTPTV280_E_CMS_BFilter.deriv.DAOD_PHYSLITE.e5421_s3681_r13145_r13146_p5855
mc20_13TeV:mc20_13TeV.364203.Sherpa_221_NN30NNLO_Zmm_Mll10_40_MAXHTPTV280_E_CMS_BFilter.deriv.DAOD_PHYSLITE.e5421_s3681_r13167_r13146_p5855
mc20_13TeV:mc20_13TeV.364204.Sherpa_221_NN30NNLO_Zee_Mll10_40_MAXHTPTV0_70_BVeto.deriv.DAOD_PHYSLITE.e5421_s3681_r13144_r13146_p5855
mc20_13TeV:mc20_13TeV.364204.Sherpa_221_NN30NNLO_Zee_Mll10_40_MAXHTPTV0_70_BVeto.deriv.DAOD_PHYSLITE.e5421_s3681_r13145_r13146_p5855
mc20_13TeV:mc20_13TeV.364204.Sherpa_221_NN30NNLO_Zee_Mll10_40_MAXHTPTV0_70_BVeto.deriv.DAOD_PHYSLITE.e5421_s3681_r13167_r13146_p5855
mc20_13TeV:mc20_13TeV.364205.Sherpa_221_NN30NNLO_Zee_Mll10_40_MAXHTPTV0_70_BFilter.deriv.DAOD_PHYSLITE.e5421_s3681_r13144_r13146_p5855
mc20_13TeV:mc20_13TeV.364205.Sherpa_221_NN30NNLO_Zee_Mll10_40_MAXHTPTV0_70_BFilter.deriv.DAOD_PHYSLITE.e5421_s3681_r13145_r13146_p5855
mc20_13TeV:mc20_13TeV.364205.Sherpa_221_NN30NNLO_Zee_Mll10_40_MAXHTPTV0_70_BFilter.deriv.DAOD_PHYSLITE.e5421_s3681_r13167_r13146_p5855
mc20_13TeV:mc20_13TeV.364206.Sherpa_221_NN30NNLO_Zee_Mll10_40_MAXHTPTV70_280_BVeto.deriv.DAOD_PHYSLITE.e5421_s3681_r13144_r13146_p5855
mc20_13TeV:mc20_13TeV.364206.Sherpa_221_NN30NNLO_Zee_Mll10_40_MAXHTPTV70_280_BVeto.deriv.DAOD_PHYSLITE.e5421_s3681_r13145_r13146_p5855
mc20_13TeV:mc20_13TeV.364206.Sherpa_221_NN30NNLO_Zee_Mll10_40_MAXHTPTV70_280_BVeto.deriv.DAOD_PHYSLITE.e5421_s3681_r13167_r13146_p5855
mc20_13TeV:mc20_13TeV.364207.Sherpa_221_NN30NNLO_Zee_Mll10_40_MAXHTPTV70_280_BFilter.deriv.DAOD_PHYSLITE.e5421_s3681_r13144_r13146_p5855
mc20_13TeV:mc20_13TeV.364207.Sherpa_221_NN30NNLO_Zee_Mll10_40_MAXHTPTV70_280_BFilter.deriv.DAOD_PHYSLITE.e5421_s3681_r13145_r13146_p5855
mc20_13TeV:mc20_13TeV.364207.Sherpa_221_NN30NNLO_Zee_Mll10_40_MAXHTPTV70_280_BFilter.deriv.DAOD_PHYSLITE.e5421_s3681_r13167_r13146_p5855
mc20_13TeV:mc20_13TeV.364208.Sherpa_221_NN30NNLO_Zee_Mll10_40_MAXHTPTV280_E_CMS_BVeto.deriv.DAOD_PHYSLITE.e5421_s3681_r13144_r13146_p5855
mc20_13TeV:mc20_13TeV.364208.Sherpa_221_NN30NNLO_Zee_Mll10_40_MAXHTPTV280_E_CMS_BVeto.deriv.DAOD_PHYSLITE.e5421_s3681_r13145_r13146_p5855
mc20_13TeV:mc20_13TeV.364208.Sherpa_221_NN30NNLO_Zee_Mll10_40_MAXHTPTV280_E_CMS_BVeto.deriv.DAOD_PHYSLITE.e5421_s3681_r13167_r13146_p5855
mc20_13TeV:mc20_13TeV.364209.Sherpa_221_NN30NNLO_Zee_Mll10_40_MAXHTPTV280_E_CMS_BFilter.deriv.DAOD_PHYSLITE.e5421_s3681_r13144_r13146_p5855
mc20_13TeV:mc20_13TeV.364209.Sherpa_221_NN30NNLO_Zee_Mll10_40_MAXHTPTV280_E_CMS_BFilter.deriv.DAOD_PHYSLITE.e5421_s3681_r13145_r13146_p5855
mc20_13TeV:mc20_13TeV.364209.Sherpa_221_NN30NNLO_Zee_Mll10_40_MAXHTPTV280_E_CMS_BFilter.deriv.DAOD_PHYSLITE.e5421_s3681_r13167_r13146_p5855
mc20_13TeV:mc20_13TeV.364210.Sherpa_221_NN30NNLO_Ztt_Mll10_40_MAXHTPTV0_70_BVeto.deriv.DAOD_PHYSLITE.e5421_s3681_r13144_r13146_p5855
mc20_13TeV:mc20_13TeV.364210.Sherpa_221_NN30NNLO_Ztt_Mll10_40_MAXHTPTV0_70_BVeto.deriv.DAOD_PHYSLITE.e5421_s3681_r13145_r13146_p5855
mc20_13TeV:mc20_13TeV.364210.Sherpa_221_NN30NNLO_Ztt_Mll10_40_MAXHTPTV0_70_BVeto.deriv.DAOD_PHYSLITE.e5421_s3681_r13167_r13146_p5855
mc20_13TeV:mc20_13TeV.364211.Sherpa_221_NN30NNLO_Ztt_Mll10_40_MAXHTPTV0_70_BFilter.deriv.DAOD_PHYSLITE.e5421_s3681_r13144_r13146_p5855
mc20_13TeV:mc20_13TeV.364211.Sherpa_221_NN30NNLO_Ztt_Mll10_40_MAXHTPTV0_70_BFilter.deriv.DAOD_PHYSLITE.e5421_s3681_r13145_r13146_p5855
mc20_13TeV:mc20_13TeV.364211.Sherpa_221_NN30NNLO_Ztt_Mll10_40_MAXHTPTV0_70_BFilter.deriv.DAOD_PHYSLITE.e5421_s3681_r13167_r13146_p5855
mc20_13TeV:mc20_13TeV.364212.Sherpa_221_NN30NNLO_Ztt_Mll10_40_MAXHTPTV70_280_BVeto.deriv.DAOD_PHYSLITE.e5421_s3681_r13144_r13146_p5855
mc20_13TeV:mc20_13TeV.364212.Sherpa_221_NN30NNLO_Ztt_Mll10_40_MAXHTPTV70_280_BVeto.deriv.DAOD_PHYSLITE.e5421_s3681_r13145_r13146_p5855
mc20_13TeV:mc20_13TeV.364212.Sherpa_221_NN30NNLO_Ztt_Mll10_40_MAXHTPTV70_280_BVeto.deriv.DAOD_PHYSLITE.e5421_s3681_r13167_r13146_p5855
mc20_13TeV:mc20_13TeV.364213.Sherpa_221_NN30NNLO_Ztt_Mll10_40_MAXHTPTV70_280_BFilter.deriv.DAOD_PHYSLITE.e5421_s3681_r13144_r13146_p5855
mc20_13TeV:mc20_13TeV.364213.Sherpa_221_NN30NNLO_Ztt_Mll10_40_MAXHTPTV70_280_BFilter.deriv.DAOD_PHYSLITE.e5421_s3681_r13145_r13146_p5855
mc20_13TeV:mc20_13TeV.364213.Sherpa_221_NN30NNLO_Ztt_Mll10_40_MAXHTPTV70_280_BFilter.deriv.DAOD_PHYSLITE.e5421_s3681_r13167_r13146_p5855
mc20_13TeV:mc20_13TeV.364214.Sherpa_221_NN30NNLO_Ztt_Mll10_40_MAXHTPTV280_E_CMS_BVeto.deriv.DAOD_PHYSLITE.e5421_s3681_r13144_r13146_p5855
mc20_13TeV:mc20_13TeV.364214.Sherpa_221_NN30NNLO_Ztt_Mll10_40_MAXHTPTV280_E_CMS_BVeto.deriv.DAOD_PHYSLITE.e5421_s3681_r13145_r13146_p5855
mc20_13TeV:mc20_13TeV.364214.Sherpa_221_NN30NNLO_Ztt_Mll10_40_MAXHTPTV280_E_CMS_BVeto.deriv.DAOD_PHYSLITE.e5421_s3681_r13167_r13146_p5855
mc20_13TeV:mc20_13TeV.364215.Sherpa_221_NN30NNLO_Ztt_Mll10_40_MAXHTPTV280_E_CMS_BFilter.deriv.DAOD_PHYSLITE.e5421_s3681_r13144_r13146_p5855
mc20_13TeV:mc20_13TeV.364215.Sherpa_221_NN30NNLO_Ztt_Mll10_40_MAXHTPTV280_E_CMS_BFilter.deriv.DAOD_PHYSLITE.e5421_s3681_r13145_r13146_p5855
mc20_13TeV:mc20_13TeV.364215.Sherpa_221_NN30NNLO_Ztt_Mll10_40_MAXHTPTV280_E_CMS_BFilter.deriv.DAOD_PHYSLITE.e5421_s3681_r13167_r13146_p5855
